EESchema Schematic File Version 2
LIBS:power
LIBS:device
LIBS:transistors
LIBS:conn
LIBS:linear
LIBS:regul
LIBS:74xx
LIBS:cmos4000
LIBS:adc-dac
LIBS:memory
LIBS:xilinx
LIBS:microcontrollers
LIBS:dsp
LIBS:microchip
LIBS:analog_switches
LIBS:motorola
LIBS:texas
LIBS:intel
LIBS:audio
LIBS:interface
LIBS:digital-audio
LIBS:philips
LIBS:display
LIBS:cypress
LIBS:siliconi
LIBS:opto
LIBS:atmel
LIBS:contrib
LIBS:valves
LIBS:stm32
LIBS:w_analog
LIBS:sprk_rfm69hcw
LIBS:gy-gps6mv2
LIBS:bme150
LIBS:hpr-telem-board-cache
EELAYER 25 0
EELAYER END
$Descr A4 11693 8268
encoding utf-8
Sheet 1 6
Title "HPR Telemetry Module"
Date "2017-03-07"
Rev "0.1"
Comp "Libre Space Foundation"
Comment1 ""
Comment2 ""
Comment3 ""
Comment4 ""
$EndDescr
$Sheet
S 6250 3450 1400 1250
U 58B828BA
F0 "MCU" 60
F1 "mcu.sch" 60
F2 "3V3" I L 6250 3600 60 
F3 "VDDA" I L 6250 3750 60 
F4 "SWDIO" I L 6250 4200 60 
F5 "SWCLK" I L 6250 4300 60 
F6 "JTDI" I L 6250 4400 60 
F7 "JTDO" I L 6250 4500 60 
F8 "JNTRST" I L 6250 4600 60 
$EndSheet
$Sheet
S 2400 5700 1250 1250
U 58BF1D3D
F0 "iNemo" 60
F1 "inemo.sch" 60
F2 "VDD" I R 3650 6800 60 
F3 "INEMO_SCL" I R 3650 6200 60 
F4 "INEMO_SDA" I R 3650 6000 60 
$EndSheet
$Sheet
S 2550 4150 1100 1250
U 58BF29C2
F0 "RFM69" 60
F1 "rfm69.sch" 60
F2 "ANT" O R 3650 4300 60 
F3 "VDD" I R 3650 5250 60 
F4 "RF_MISO" O R 3650 4950 60 
F5 "RF_MOSI" I R 3650 4800 60 
F6 "RF_SCK" I R 3650 4650 60 
F7 "RF_NSS" B R 3650 4500 60 
F8 "RF_INT" O R 3650 5100 60 
$EndSheet
$Sheet
S 2600 1100 1050 1250
U 58BF43D1
F0 "GPS" 60
F1 "gps.sch" 60
F2 "VCC" I R 3650 2200 60 
F3 "GND" I R 3650 2050 60 
F4 "GPS_RX" I R 3650 1700 60 
F5 "GPS_TX" O R 3650 1500 60 
$EndSheet
$Sheet
S 2600 2650 1050 1200
U 58BF82E0
F0 "BME180" 60
F1 "BME180.sch" 60
F2 "VDD" I R 3650 3700 60 
F3 "VDDIO" I R 3650 3550 60 
F4 "BME_SCK" I R 3650 3100 60 
F5 "BME_SDA" I R 3650 2950 60 
$EndSheet
$Comp
L LD1117S33TR U?
U 1 1 58BFB048
P 9500 5600
F 0 "U?" H 9500 5850 50  0000 C CNN
F 1 "LD1117S33TR" H 9500 5800 50  0000 C CNN
F 2 "SOT-223" H 9500 5700 50  0000 C CNN
F 3 "" H 9500 5600 50  0000 C CNN
	1    9500 5600
	1    0    0    -1  
$EndComp
$Comp
L CONN_01X02 P?
U 1 1 58BFB4C1
P 8700 5600
F 0 "P?" H 8700 5750 50  0000 C CNN
F 1 "CONN_01X02" V 8800 5600 50  0000 C CNN
F 2 "" H 8700 5600 50  0000 C CNN
F 3 "" H 8700 5600 50  0000 C CNN
	1    8700 5600
	-1   0    0    1   
$EndComp
$Comp
L GND #PWR?
U 1 1 58BFB6EA
P 9500 6050
F 0 "#PWR?" H 9500 5800 50  0001 C CNN
F 1 "GND" H 9500 5900 50  0000 C CNN
F 2 "" H 9500 6050 50  0000 C CNN
F 3 "" H 9500 6050 50  0000 C CNN
	1    9500 6050
	1    0    0    -1  
$EndComp
Text GLabel 10100 5550 2    60   Input ~ 0
VDD
Text GLabel 3950 2200 2    60   Input ~ 0
VDD
Text GLabel 3950 3700 2    60   Input ~ 0
VDD
Text GLabel 3950 5250 2    60   Input ~ 0
VDD
Text GLabel 3950 6800 2    60   Input ~ 0
VDD
Text GLabel 6000 3600 0    60   Input ~ 0
VDD
Wire Wire Line
	8900 5650 9050 5650
Wire Wire Line
	9050 5650 9050 5950
Wire Wire Line
	9050 5950 9500 5950
Wire Wire Line
	9500 5850 9500 6050
Connection ~ 9500 5950
Wire Wire Line
	8900 5550 9100 5550
Wire Wire Line
	9900 5550 10100 5550
Wire Wire Line
	3650 2200 3950 2200
Wire Wire Line
	3650 3700 3950 3700
Wire Wire Line
	3650 5250 3950 5250
Wire Wire Line
	3650 6800 3950 6800
Wire Wire Line
	6000 3600 6250 3600
Wire Wire Line
	6100 3600 6100 3750
Wire Wire Line
	6100 3750 6250 3750
Connection ~ 6100 3600
Wire Wire Line
	3650 3550 3800 3550
Wire Wire Line
	3800 3550 3800 3700
Connection ~ 3800 3700
$Comp
L GND #PWR?
U 1 1 58C0293C
P 3950 2050
F 0 "#PWR?" H 3950 1800 50  0001 C CNN
F 1 "GND" H 3950 1900 50  0000 C CNN
F 2 "" H 3950 2050 50  0000 C CNN
F 3 "" H 3950 2050 50  0000 C CNN
	1    3950 2050
	0    -1   -1   0   
$EndComp
Wire Wire Line
	3950 2050 3650 2050
$EndSCHEMATC
